{
    "pageNo":2,
    "itemsPerPage":20,
    "totalCount":1340,
    "offset":20,
    "limit":40,
    "lastPage":67,
    "hasNext":true,
    "hasPrev":true,
    "pages":[
        {
            "id":2283,
            "vendor_id":9,
            "vendorName":"sixthVendor",
            "name":"777777777",
            "description":"777777777",
            "thumbnail":"https://s3.ap-northeast-2.amazonaws.com/media.yagom-academy.kr/training-resources/9/20230524/b1f58470f9f311ed8594610eccf6d6d5_thumb.jpg",
            "currency":"KRW",
            "price":7777777.0,
            "bargain_price":7777777.0,
            "discounted_price":0.0,
            "stock":1,
            "created_at":"2023-05-24T00:00:00",
            "issued_at":"2023-05-24T00:00:00"
        },{
            "id":2282,
            "vendor_id":9,
            "vendorName":"sixthVendor",
            "name":"6666666",
            "description":"66666666666",
            "thumbnail":"https://s3.ap-northeast-2.amazonaws.com/media.yagom-academy.kr/training-resources/9/20230524/76231a8df9f111ed8594e329694d43aa_thumb.jpg",
            "currency":"KRW",
            "price":6.6666666E7,
            "bargain_price":6.6666666E7,
            "discounted_price":0.0,
            "stock":1,
            "created_at":"2023-05-24T00:00:00",
            "issued_at":"2023-05-24T00:00:00"
        },{
            "id":2281,
            "vendor_id":9,
            "vendorName":"sixthVendor",
            "name":"55555555",
            "description":"555555555",
            "thumbnail":"https://s3.ap-northeast-2.amazonaws.com/media.yagom-academy.kr/training-resources/9/20230524/f2a2b49af9f011ed85948fc1cfe41b4f_thumb.jpg",
            "currency":"KRW",
            "price":555555.0,
            "bargain_price":555555.0,
            "discounted_price":0.0,
            "stock":1,
            "created_at":"2023-05-24T00:00:00",
            "issued_at":"2023-05-24T00:00:00"
        },{
            "id":2280,
            "vendor_id":9,
            "vendorName":"sixthVendor",
            "name":"444444",
            "description":"444444444",
            "thumbnail":"https://s3.ap-northeast-2.amazonaws.com/media.yagom-academy.kr/training-resources/9/20230524/bb2e14a7f9f011ed8594753fa726d2fa_thumb.jpg",
            "currency":"KRW",
            "price":4.4444444E7,
            "bargain_price":4.4444444E7,
            "discounted_price":0.0,
            "stock":1,
            "created_at":"2023-05-24T00:00:00",
            "issued_at":"2023-05-24T00:00:00"
        },{
            "id":2279,
            "vendor_id":9,
            "vendorName":"sixthVendor",
            "name":"3333",
            "description":"333333333",
            "thumbnail":"https://s3.ap-northeast-2.amazonaws.com/media.yagom-academy.kr/training-resources/9/20230524/7f390794f9ee11ed859475c4e2ea5c81_thumb.jpg",
            "currency":"KRW",
            "price":3.3333333E7,
            "bargain_price":3.3333333E7,
            "discounted_price":0.0,
            "stock":1,
            "created_at":"2023-05-24T00:00:00",
            "issued_at":"2023-05-24T00:00:00"
        },{
            "id":2278,
            "vendor_id":9,
            "vendorName":"sixthVendor",
            "name":"2222222",
            "description":"2222222222",
            "thumbnail":"https://s3.ap-northeast-2.amazonaws.com/media.yagom-academy.kr/training-resources/9/20230524/680871f1f9ee11ed85947b937115fe9e_thumb.jpg",
            "currency":"KRW",
            "price":2.222222222E9,
            "bargain_price":2.222222222E9,
            "discounted_price":0.0,
            "stock":1,
            "created_at":"2023-05-24T00:00:00",
            "issued_at":"2023-05-24T00:00:00"
        },{
            "id":2277,
            "vendor_id":9,
            "vendorName":"sixthVendor",
            "name":"111111",
            "description":"11111111111111",
            "thumbnail":"https://s3.ap-northeast-2.amazonaws.com/media.yagom-academy.kr/training-resources/9/20230524/db7f72eef9db11ed85946f85af49f0df_thumb.jpg",
            "currency":"KRW",
            "price":1.11111111E8,
            "bargain_price":1.11111111E8,
            "discounted_price":0.0,
            "stock":1,
            "created_at":"2023-05-24T00:00:00",
            "issued_at":"2023-05-24T00:00:00"
        },{
            "id":2252,
            "vendor_id":54,
            "vendorName":"junho15",
            "name":" iMac",
            "description":"256GB 저장 장치\n8GB 통합 메모리\n24형 4.5K Retina 디스플레이²\nThunderbolt/USB 4 포트 2개",
            "thumbnail":"https://s3.ap-northeast-2.amazonaws.com/media.yagom-academy.kr/training-resources/54/20230512/5f87621ff09311ed8594a7ff8b4ae6ca_thumb.jpg",
            "currency":"KRW",
            "price":1790000.0,
            "bargain_price":1740000.0,
            "discounted_price":50000.0,
            "stock":50,
            "created_at":"2023-05-12T00:00:00",
            "issued_at":"2023-05-12T00:00:00"
        },{
            "id":2251,
            "vendor_id":54,
            "vendorName":"junho15",
            "name":"MacBook Pro","description":"16코어 Neural Engine\n35.9cm Liquid Retina XDR 디스플레이²\nThunderbolt 4 포트 3개, HDMI 포트, SDXC 카드 슬롯, 헤드폰 잭, MagSafe 3 포트\nTouch ID 탑재형 Magic Keyboard\nForce Touch \n67W USB-C 전원 어댑터",
            "thumbnail":"https://s3.ap-northeast-2.amazonaws.com/media.yagom-academy.kr/training-resources/54/20230512/3b1cdf9cf09311ed8594ddc7f99e719e_thumb.jpg",
            "currency":"KRW",
            "price":2790000.0,
            "bargain_price":2790000.0,
            "discounted_price":0.0,
            "stock":65,
            "created_at":"2023-05-12T00:00:00",
            "issued_at":"2023-05-12T00:00:00"
        },{
            "id":2250,
            "vendor_id":54,
            "vendorName":"junho15",
            "name":"iPad Pro",
            "description":"11형 디스플레이\nLiquid Retina 디스플레이\n스페이스 그레이\n128GB\nWi-Fi","thumbnail":"https://s3.ap-northeast-2.amazonaws.com/media.yagom-academy.kr/training-resources/54/20230512/18d51605f09311ed8594bb386ffef0f0_thumb.jpg",
            "currency":"KRW",
            "price":1249000.0,
            "bargain_price":1245000.0,
            "discounted_price":4000.0,
            "stock":90,
            "created_at":"2023-05-12T00:00:00",
            "issued_at":"2023-05-12T00:00:00"
        },{
            "id":2249,
            "vendor_id":54,
            "vendorName":"junho15",
            "name":"iPhone 14 Pro",
            "description":"딥 퍼플\n128GB",
            "thumbnail":"https://s3.ap-northeast-2.amazonaws.com/media.yagom-academy.kr/training-resources/54/20230512/e1a87b8ef09211ed8594ff783cee29c1_thumb.jpg",
            "currency":"KRW",
            "price":1550000.0,
            "bargain_price":1550000.0,
            "discounted_price":0.0,
            "stock":25,
            "created_at":"2023-05-12T00:00:00",
            "issued_at":"2023-05-12T00:00:00"
        },{
            "id":2248,
            "vendor_id":54,
            "vendorName":"junho15",
            "name":"Apple Watch Ultra",
            "description":"티타늄 케이스, 그리고 스타라이트 알파인 루프\n49mm\n\nGPS + Cellular",
            "thumbnail":"https://s3.ap-northeast-2.amazonaws.com/media.yagom-academy.kr/training-resources/54/20230512/b2772f07f09211ed85945d85e3329a6d_thumb.jpg",
            "currency":"KRW",
            "price":1149000.0,
            "bargain_price":1140000.0,
            "discounted_price":9000.0,
            "stock":50,
            "created_at":"2023-05-12T00:00:00",
            "issued_at":"2023-05-12T00:00:00"
        },{
            "id":2247,
            "vendor_id":54,
            "vendorName":"junho15",
            "name":"iPhone SE",
            "description":"스타라이트\n64GB",
            "thumbnail":"https://s3.ap-northeast-2.amazonaws.com/media.yagom-academy.kr/training-resources/54/20230512/4f8faa20f09211ed85941105fb92c11a_thumb.jpg",
            "currency":"KRW",
            "price":650000.0,
            "bargain_price":640000.0,
            "discounted_price":10000.0,
            "stock":10,
            "created_at":"2023-05-12T00:00:00",
            "issued_at":"2023-05-12T00:00:00"
        },{
            "id":2246,
            "vendor_id":54,
            "vendorName":"junho15",
            "name":"iPhone 14",
            "description":"(PRODUCT)RED\n128GB \nSuper Retina XDR 디스플레이\n15.4cm(대각선) 전면 화면 OLED 디스플레이\n2532 x 1170 픽셀 해상도(460ppi)",
            "thumbnail":"https://s3.ap-northeast-2.amazonaws.com/media.yagom-academy.kr/training-resources/54/20230512/1caf3849f09211ed85942502babff303_thumb.jpg",
            "currency":"KRW",
            "price":1250000.0,
            "bargain_price":1250000.0,
            "discounted_price":0.0,
            "stock":100,
            "created_at":"2023-05-12T00:00:00",
            "issued_at":"2023-05-12T00:00:00"
        },{
            "id":2240,
            "vendor_id":9,
            "vendorName":"sixthVendor",
            "name":"1111",
            "description":"111111",
            "thumbnail":"https://s3.ap-northeast-2.amazonaws.com/media.yagom-academy.kr/training-resources/9/20230508/184bf907edbc11ed8594739dc753e1c0_thumb.jpg",
            "currency":"KRW",
            "price":11111.0,
            "bargain_price":11111.0,
            "discounted_price":0.0,
            "stock":1,
            "created_at":"2023-05-08T00:00:00",
            "issued_at":"2023-05-08T00:00:00"
        },{
            "id":2239,
            "vendor_id":9,
            "vendorName":"sixthVendor",
            "name":"Picture",
            "description":"123123123",
            "thumbnail":"https://s3.ap-northeast-2.amazonaws.com/media.yagom-academy.kr/training-resources/9/20230508/0a00c334edbc11ed8594715c63d2636f_thumb.jpg",
            "currency":"KRW",
            "price":1.23123123E8,
            "bargain_price":1.23123123E8,
            "discounted_price":0.0,
            "stock":1,
            "created_at":"2023-05-08T00:00:00",
            "issued_at":"2023-05-08T00:00:00"
        },{
            "id":2237,
            "vendor_id":9,
            "vendorName":"sixthVendor",
            "name":"5555",
            "description":"555555",
            "thumbnail":"https://s3.ap-northeast-2.amazonaws.com/media.yagom-academy.kr/training-resources/9/20230508/82db4a0eedbb11ed8594b3851ce691da_thumb.jpg",
            "currency":"KRW",
            "price":5555.0,
            "bargain_price":5555.0,
            "discounted_price":0.0,
            "stock":1,
            "created_at":"2023-05-08T00:00:00",
            "issued_at":"2023-05-08T00:00:00"
        },{
            "id":2236,
            "vendor_id":9,
            "vendorName":"sixthVendor",
            "name":"22222",
            "description":"22222222",
            "thumbnail":"https://s3.ap-northeast-2.amazonaws.com/media.yagom-academy.kr/training-resources/9/20230508/b64f3ebbedba11ed8594cffed856b9e8_thumb.jpg",
            "currency":"KRW",
            "price":222222.0,
            "bargain_price":222222.0,
            "discounted_price":0.0,
            "stock":1,
            "created_at":"2023-05-08T00:00:00",
            "issued_at":"2023-05-08T00:00:00"
        },{
            "id":2235,
            "vendor_id":9,
            "vendorName":"sixthVendor",
            "name":"11111",
            "description":"111111111",
            "thumbnail":"https://s3.ap-northeast-2.amazonaws.com/media.yagom-academy.kr/training-resources/9/20230508/6b51b898edb311ed8594efa295e227a1_thumb.jpg",
            "currency":"KRW",
            "price":111111.0,
            "bargain_price":111111.0,
            "discounted_price":0.0,
            "stock":1,
            "created_at":"2023-05-08T00:00:00",
            "issued_at":"2023-05-08T00:00:00"
        },{
            "id":2234,
            "vendor_id":9,
            "vendorName":"sixthVendor",
            "name":"55555",
            "description":"55555555",
            "thumbnail":"https://s3.ap-northeast-2.amazonaws.com/media.yagom-academy.kr/training-resources/9/20230508/44366df5edb311ed85941ff0e93fa884_thumb.jpg",
            "currency":"KRW",
            "price":55555.0,
            "bargain_price":55555.0,
            "discounted_price":0.0,
            "stock":1,
            "created_at":"2023-05-08T00:00:00",
            "issued_at":"2023-05-08T00:00:00"
        }
    ]
}
